…
Normalized boxplot

``` r
means_subject <- df_correct %>% 
   filter(category != "Filler") %>% 
   summarySEwithin(.,"VOT",withinvars = c("subject","session", "PosOr"))
(means_subject <- means_subject %>%
  group_by(subject) %>%
  dplyr::mutate(VOT_norm = VOT - first(VOT)))
```

    ## # A tibble: 100 × 9
    ## # Groups:   subject [7]
    ##    subject session PosOr     N   VOT    sd    se    ci VOT_norm
    ##    <fct>   <fct>   <fct> <dbl> <dbl> <dbl> <dbl> <dbl>    <dbl>
    ##  1 1       1       1        13 1415.  546. 151.   330.      0  
    ##  2 1       1       2        17 1251.  444. 108.   228.   -164. 
    ##  3 1       1       3        15 1594.  561. 145.   311.    179. 
    ##  4 1       1       4         9 1267.  259.  86.5  199.   -149. 
    ##  5 1       1       5        16 1544.  531. 133.   283.    128. 
    ##  6 1       2       1        14 1179   306.  81.7  177.   -236. 
    ##  7 1       2       2        14 1200.  453. 121.   262.   -215. 
    ##  8 1       2       3        17 1251.  326.  79.2  168.   -165. 
    ##  9 1       2       4        18 1532.  564. 133.   281.    117. 
    ## 10 1       2       5        16 1360.  601. 150.   320.    -54.9
    ## # … with 90 more rows
…
